{
  "BS_121x": {
    "Lh": 7.9e-3,
    "Wh": 1.5e-3,
    "T": 1.075e-3,
    "b": 55.1e-3,
    "d": 68e-3,
    "eta": 0.03,
    "rhob": 6e-7,
    "rhod": 5.4e-8,
    "length": 9.4,
    "nb_holes_per_cs": 16
  },
  "BS_88x": {
    "Lh": 7.9e-3,
    "Wh": 1.5e-3,
    "T": 1.075e-3,
    "b": 38.2e-3,
    "d": 47e-3,
    "eta": 0.04,
    "rhob": 6e-7,
    "rhod": 5.4e-8,
    "length": 14.1,
    "nb_holes_per_cs": 16
  },
  "BS_101y": {
    "Lh": 7.9e-3,
    "Wh": 1.5e-3,
    "T": 1.075e-3,
    "b": 49.6e-3,
    "d": 68e-3,
    "eta": 0.03,
    "rhob": 6e-07,
    "rhod": 5.4e-8,
    "length": 10.7,
    "nb_holes_per_cs": 16
  },
  "BS_121y": {
    "Lh": 7.9e-3,
    "Wh": 1.5e-3,
    "T": 1.075e-3,
    "b": 55.1e-3,
    "d": 68e-3,
    "eta": 0.03,
    "rhob": 6e-7,
    "rhod": 5.4e-8,
    "length": 9.4,
    "nb_holes_per_cs": 10.6
  },
  "BS_88y": {
    "Lh": 7.9e-3,
    "Wh": 1.5e-3,
    "T": 1.075e-3,
    "b": 38.2e-3,
    "d": 47e-3,
    "eta": 0.04,
    "rhob": 6e-07,
    "rhod": 5.4e-8,
    "length": 14.1,
    "nb_holes_per_cs": 16
  },
  "BS_101x": {
    "Lh": 7.9e-3,
    "Wh": 1.5e-3,
    "T": 1.075e-3,
    "b": 49.6e-3,
    "d": 68e-3,
    "eta": 0.03,
    "rhob": 6e-7,
    "rhod": 5.4e-8,
    "length": 10.7,
    "nb_holes_per_cs": 16
  }
}