{
  "name": "ATLAS",
  "length": 8,
  "modes":[{
    "Rl": 1.1e-06,
    "Ql": 1.0,
    "fl": 5000000000.0,
    "Rxd": 19200.0,
    "Qxd": 1.0,
    "fxd": 5000000000.0,
    "Ryd": 19200.0,
    "Qyd": 1.0,
    "fyd": 5000000000.0
  },
  {
    "Rl": 1.2562,
    "Ql": 6281.0,
    "fl": 1912600000.0,
    "Rxd": 4.8,
    "Qxd": 3941.0,
    "fxd": 1464600000.0,
    "Ryd": 4.8,
    "Qyd": 3941.0,
    "fyd": 1464600000.0
  },
  {
    "Rl": 0.0,
    "Ql": 6283.0,
    "fl": 1913500000.0,
    "Rxd": 11.15,
    "Qxd": 3948.0,
    "fxd": 1465900000.0,
    "Ryd": 11.15,
    "Qyd": 3948.0,
    "fyd": 1465900000.0
  },
  {
    "Rl": 8.799,
    "Ql": 6285.0,
    "fl": 1915200000.0,
    "Rxd": 53.38,
    "Qxd": 3958.0,
    "fxd": 1468100000.0,
    "Ryd": 53.38,
    "Qyd": 3958.0,
    "fyd": 1468100000.0
  },
  {
    "Rl": 0.0,
    "Ql": 6288.0,
    "fl": 1917500000.0,
    "Rxd": 19.81,
    "Qxd": 3974.0,
    "fxd": 1471100000.0,
    "Ryd": 19.81,
    "Qyd": 3974.0,
    "fyd": 1471100000.0
  },
  {
    "Rl": 25.168,
    "Ql": 6292.0,
    "fl": 1920400000.0,
    "Rxd": 189.27,
    "Qxd": 3994.0,
    "fxd": 1475000000.0,
    "Ryd": 189.27,
    "Qyd": 3994.0,
    "fyd": 1475000000.0
  },
  {
    "Rl": 3.1485,
    "Ql": 6297.0,
    "fl": 1924100000.0,
    "Rxd": 0.91,
    "Qxd": 4018.0,
    "fxd": 1479700000.0,
    "Ryd": 0.91,
    "Qyd": 4018.0,
    "fyd": 1479700000.0
  },
  {
    "Rl": 39.0786,
    "Ql": 6303.0,
    "fl": 1928200000.0,
    "Rxd": 371.46,
    "Qxd": 4046.0,
    "fxd": 1485300000.0,
    "Ryd": 371.46,
    "Qyd": 4046.0,
    "fyd": 1485300000.0
  },
  {
    "Rl": 23.978,
    "Ql": 6310.0,
    "fl": 1933100000.0,
    "Rxd": 119.15,
    "Qxd": 4079.0,
    "fxd": 1491700000.0,
    "Ryd": 119.15,
    "Qyd": 4079.0,
    "fyd": 1491700000.0
  },
  {
    "Rl": 30.3264,
    "Ql": 6318.0,
    "fl": 1938600000.0,
    "Rxd": 300.04,
    "Qxd": 4116.0,
    "fxd": 1498900000.0,
    "Ryd": 300.04,
    "Qyd": 4116.0,
    "fyd": 1498900000.0
  },
  {
    "Rl": 79.0875,
    "Ql": 6327.0,
    "fl": 1944800000.0,
    "Rxd": 672.68,
    "Qxd": 4157.0,
    "fxd": 1506900000.0,
    "Ryd": 672.68,
    "Qyd": 4157.0,
    "fyd": 1506900000.0
  },
  {
    "Rl": 2.5344,
    "Ql": 6336.0,
    "fl": 1951600000.0,
    "Rxd": 2.45,
    "Qxd": 4202.0,
    "fxd": 1515700000.0,
    "Ryd": 2.45,
    "Qyd": 4202.0,
    "fyd": 1515700000.0
  },
  {
    "Rl": 121.228,
    "Ql": 6347.0,
    "fl": 1959000000.0,
    "Rxd": 952.08,
    "Qxd": 4251.0,
    "fxd": 1525300000.0,
    "Ryd": 952.08,
    "Qyd": 4251.0,
    "fyd": 1525300000.0
  },
  {
    "Rl": 43.8702,
    "Ql": 6358.0,
    "fl": 1967000000.0,
    "Rxd": 770.41,
    "Qxd": 4305.0,
    "fxd": 1535700000.0,
    "Ryd": 770.41,
    "Qyd": 4305.0,
    "fyd": 1535700000.0
  },
  {
    "Rl": 57.339,
    "Ql": 6371.0,
    "fl": 1975600000.0,
    "Rxd": 73.49,
    "Qxd": 4362.0,
    "fxd": 1546800000.0,
    "Ryd": 73.49,
    "Qyd": 4362.0,
    "fyd": 1546800000.0
  },
  {
    "Rl": 174.283,
    "Ql": 6384.0,
    "fl": 1984800000.0,
    "Rxd": 1589.94,
    "Qxd": 4423.0,
    "fxd": 1558600000.0,
    "Ryd": 1589.94,
    "Qyd": 4423.0,
    "fyd": 1558600000.0
  },
  {
    "Rl": 12.1562,
    "Ql": 6398.0,
    "fl": 1994600000.0,
    "Rxd": 1130.94,
    "Qxd": 4488.0,
    "fxd": 1571100000.0,
    "Ryd": 1130.94,
    "Qyd": 4488.0,
    "fyd": 1571100000.0
  },
  {
    "Rl": 136.597,
    "Ql": 6413.0,
    "fl": 2005000000.0,
    "Rxd": 42.43,
    "Qxd": 4556.0,
    "fxd": 1584400000.0,
    "Ryd": 42.43,
    "Qyd": 4556.0,
    "fyd": 1584400000.0
  },
  {
    "Rl": 198.625,
    "Ql": 6428.0,
    "fl": 2016000000.0,
    "Rxd": 1940.03,
    "Qxd": 4629.0,
    "fxd": 1598200000.0,
    "Ryd": 1940.03,
    "Qyd": 4629.0,
    "fyd": 1598200000.0
  },
  {
    "Rl": 5.8005,
    "Ql": 6445.0,
    "fl": 2027400000.0,
    "Rxd": 2219.85,
    "Qxd": 4704.0,
    "fxd": 1612800000.0,
    "Ryd": 2219.85,
    "Qyd": 4704.0,
    "fyd": 1612800000.0
  },
  {
    "Rl": 182.875,
    "Ql": 6462.0,
    "fl": 2039500000.0,
    "Rxd": 152.32,
    "Qxd": 4783.0,
    "fxd": 1628000000.0,
    "Ryd": 152.32,
    "Qyd": 4783.0,
    "fyd": 1628000000.0
  },
  {
    "Rl": 244.982,
    "Ql": 6481.0,
    "fl": 2052100000.0,
    "Rxd": 1200.28,
    "Qxd": 4865.0,
    "fxd": 1643700000.0,
    "Ryd": 1200.28,
    "Qyd": 4865.0,
    "fyd": 1643700000.0
  },
  {
    "Rl": 14.3,
    "Ql": 6500.0,
    "fl": 2065300000.0,
    "Rxd": 3531.26,
    "Qxd": 4951.0,
    "fxd": 1660100000.0,
    "Ryd": 3531.26,
    "Qyd": 4951.0,
    "fyd": 1660100000.0
  },
  {
    "Rl": 162.323,
    "Ql": 6519.0,
    "fl": 2079000000.0,
    "Rxd": 2075.94,
    "Qxd": 5039.0,
    "fxd": 1677100000.0,
    "Ryd": 2075.94,
    "Qyd": 5039.0,
    "fyd": 1677100000.0
  },
  {
    "Rl": 321.114,
    "Ql": 6540.0,
    "fl": 2093200000.0,
    "Rxd": 10.5,
    "Qxd": 5130.0,
    "fxd": 1694600000.0,
    "Ryd": 10.5,
    "Qyd": 5130.0,
    "fyd": 1694600000.0
  },
  {
    "Rl": 78.732,
    "Ql": 6561.0,
    "fl": 2107900000.0,
    "Rxd": 1996.45,
    "Qxd": 5223.0,
    "fxd": 1712600000.0,
    "Ryd": 1996.45,
    "Qyd": 5223.0,
    "fyd": 1712600000.0
  },
  {
    "Rl": 63.1968,
    "Ql": 6583.0,
    "fl": 2123100000.0,
    "Rxd": 4641.43,
    "Qxd": 5319.0,
    "fxd": 1731100000.0,
    "Ryd": 4641.43,
    "Qyd": 5319.0,
    "fyd": 1731100000.0
  },
  {
    "Rl": 335.534,
    "Ql": 6605.0,
    "fl": 2138700000.0,
    "Rxd": 3199.79,
    "Qxd": 5418.0,
    "fxd": 1750100000.0,
    "Ryd": 3199.79,
    "Qyd": 5418.0,
    "fyd": 1750100000.0
  },
  {
    "Rl": 260.52,
    "Ql": 6629.0,
    "fl": 2154900000.0,
    "Rxd": 284.04,
    "Qxd": 5518.0,
    "fxd": 1769600000.0,
    "Ryd": 284.04,
    "Qyd": 5518.0,
    "fyd": 1769600000.0
  },
  {
    "Rl": 15.9648,
    "Ql": 6652.0,
    "fl": 2171400000.0,
    "Rxd": 1019.72,
    "Qxd": 5620.0,
    "fxd": 1789600000.0,
    "Ryd": 1019.72,
    "Qyd": 5620.0,
    "fyd": 1789600000.0
  },
  {
    "Rl": 148.897,
    "Ql": 6677.0,
    "fl": 2188500000.0,
    "Rxd": 4539.97,
    "Qxd": 5723.0,
    "fxd": 1809900000.0,
    "Ryd": 4539.97,
    "Qyd": 5723.0,
    "fyd": 1809900000.0
  },
  {
    "Rl": 381.344,
    "Ql": 6702.0,
    "fl": 2206000000.0,
    "Rxd": 5746.53,
    "Qxd": 5828.0,
    "fxd": 1830700000.0,
    "Ryd": 5746.53,
    "Qyd": 5828.0,
    "fyd": 1830700000.0
  },
  {
    "Rl": 244.863,
    "Ql": 6727.0,
    "fl": 2223900000.0,
    "Rxd": 3055.7,
    "Qxd": 5934.0,
    "fxd": 1851900000.0,
    "Ryd": 3055.7,
    "Qyd": 5934.0,
    "fyd": 1851900000.0
  },
  {
    "Rl": 17.5578,
    "Ql": 6753.0,
    "fl": 2242200000.0,
    "Rxd": 223.56,
    "Qxd": 6040.0,
    "fxd": 1873400000.0,
    "Ryd": 223.56,
    "Qyd": 6040.0,
    "fyd": 1873400000.0
  },
  {
    "Rl": 124.056,
    "Ql": 6779.0,
    "fl": 2260900000.0,
    "Rxd": 932.05,
    "Qxd": 6146.0,
    "fxd": 1895300000.0,
    "Ryd": 932.05,
    "Qyd": 6146.0,
    "fyd": 1895300000.0
  },
  {
    "Rl": 360.718,
    "Ql": 6806.0,
    "fl": 2280000000.0,
    "Rxd": 4341.09,
    "Qxd": 6252.0,
    "fxd": 1917500000.0,
    "Ryd": 4341.09,
    "Qyd": 6252.0,
    "fyd": 1917500000.0
  },
  {
    "Rl": 321.834,
    "Ql": 6833.0,
    "fl": 2299400000.0,
    "Rxd": 6647.86,
    "Qxd": 6358.0,
    "fxd": 1940000000.0,
    "Ryd": 6647.86,
    "Qyd": 6358.0,
    "fyd": 1940000000.0
  },
  {
    "Rl": 85.0764,
    "Ql": 6861.0,
    "fl": 2319300000.0,
    "Rxd": 5568.34,
    "Qxd": 6462.0,
    "fxd": 1962800000.0,
    "Ryd": 5568.34,
    "Qyd": 6462.0,
    "fyd": 1962800000.0
  },
  {
    "Rl": 23.4192,
    "Ql": 6888.0,
    "fl": 2339500000.0,
    "Rxd": 2380.83,
    "Qxd": 6564.0,
    "fxd": 1985900000.0,
    "Ryd": 2380.83,
    "Qyd": 6564.0,
    "fyd": 1985900000.0
  },
  {
    "Rl": 208.863,
    "Ql": 6916.0,
    "fl": 2360000000.0,
    "Rxd": 143.03,
    "Qxd": 6662.0,
    "fxd": 2009200000.0,
    "Ryd": 143.03,
    "Qyd": 6662.0,
    "fyd": 2009200000.0
  },
  {
    "Rl": 360.446,
    "Ql": 6945.0,
    "fl": 2380800000.0,
    "Rxd": 739.8,
    "Qxd": 6755.0,
    "fxd": 2032700000.0,
    "Ryd": 739.8,
    "Qyd": 6755.0,
    "fyd": 2032700000.0
  },
  {
    "Rl": 281.012,
    "Ql": 6973.0,
    "fl": 2402000000.0,
    "Rxd": 3589.39,
    "Qxd": 6838.0,
    "fxd": 2056500000.0,
    "Ryd": 3589.39,
    "Qyd": 6838.0,
    "fyd": 2056500000.0
  },
  {
    "Rl": 86.8124,
    "Ql": 7001.0,
    "fl": 2423500000.0,
    "Rxd": 6529.24,
    "Qxd": 6905.0,
    "fxd": 2080400000.0,
    "Ryd": 6529.24,
    "Qyd": 6905.0,
    "fyd": 2080400000.0
  },
  {
    "Rl": 11.9493,
    "Ql": 7029.0,
    "fl": 2445200000.0,
    "Rxd": 7566.55,
    "Qxd": 6935.0,
    "fxd": 2104300000.0,
    "Ryd": 7566.55,
    "Qyd": 6935.0,
    "fyd": 2104300000.0
  },
  {
    "Rl": 515.161,
    "Ql": 7057.0,
    "fl": 2467200000.0,
    "Rxd": 6034.87,
    "Qxd": 6821.0,
    "fxd": 2128100000.0,
    "Ryd": 6034.87,
    "Qyd": 6821.0,
    "fyd": 2128100000.0
  },
  {
    "Rl": 281.274,
    "Ql": 7085.0,
    "fl": 2489500000.0,
    "Rxd": 0.42,
    "Qxd": 3260.0,
    "fxd": 2143000000.0,
    "Ryd": 0.42,
    "Qyd": 3260.0,
    "fyd": 2143000000.0
  },
  {
    "Rl": 328.621,
    "Ql": 7113.0,
    "fl": 2512000000.0,
    "Rxd": 30.39,
    "Qxd": 3274.0,
    "fxd": 2144000000.0,
    "Ryd": 30.39,
    "Qyd": 3274.0,
    "fyd": 2144000000.0
  },
  {
    "Rl": 229.194,
    "Ql": 7140.0,
    "fl": 2534800000.0,
    "Rxd": 7.78,
    "Qxd": 3309.0,
    "fxd": 2145700000.0,
    "Ryd": 7.78,
    "Qyd": 3309.0,
    "fyd": 2145700000.0
  },
  {
    "Rl": 77.3928,
    "Ql": 7166.0,
    "fl": 2557800000.0,
    "Rxd": 284.93,
    "Qxd": 3439.0,
    "fxd": 2147900000.0,
    "Ryd": 284.93,
    "Qyd": 3439.0,
    "fyd": 2147900000.0
  },
  {
    "Rl": 2.1576,
    "Ql": 7192.0,
    "fl": 2581000000.0,
    "Rxd": 531.91,
    "Qxd": 3999.0,
    "fxd": 2150300000.0,
    "Ryd": 531.91,
    "Qyd": 3999.0,
    "fyd": 2150300000.0
  },
  {
    "Rl": 65.6656,
    "Ql": 7216.0,
    "fl": 2604300000.0,
    "Rxd": 817.43,
    "Qxd": 4000.0,
    "fxd": 2152500000.0,
    "Ryd": 817.43,
    "Qyd": 4000.0,
    "fyd": 2152500000.0
  },
  {
    "Rl": 227.336,
    "Ql": 7240.0,
    "fl": 2627800000.0,
    "Rxd": 188.83,
    "Qxd": 3530.0,
    "fxd": 2155700000.0,
    "Ryd": 188.83,
    "Qyd": 3530.0,
    "fyd": 2155700000.0
  },
  {
    "Rl": 377.624,
    "Ql": 7262.0,
    "fl": 2651500000.0,
    "Rxd": 45.9,
    "Qxd": 3434.0,
    "fxd": 2159900000.0,
    "Ryd": 45.9,
    "Qyd": 3434.0,
    "fyd": 2159900000.0
  },
  {
    "Rl": 410.761,
    "Ql": 7283.0,
    "fl": 2675400000.0,
    "Rxd": 146.84,
    "Qxd": 3448.0,
    "fxd": 2164800000.0,
    "Ryd": 146.84,
    "Qyd": 3448.0,
    "fyd": 2164800000.0
  },
  {
    "Rl": 302.992,
    "Ql": 7301.0,
    "fl": 2699300000.0,
    "Rxd": 217.2,
    "Qxd": 3586.0,
    "fxd": 2170100000.0,
    "Ryd": 217.2,
    "Qyd": 3586.0,
    "fyd": 2170100000.0
  },
  {
    "Rl": 130.956,
    "Ql": 7316.0,
    "fl": 2723300000.0,
    "Rxd": 42.26,
    "Qxd": 4139.0,
    "fxd": 2175000000.0,
    "Ryd": 42.26,
    "Qyd": 4139.0,
    "fyd": 2175000000.0
  },
  {
    "Rl": 28.5675,
    "Ql": 7325.0,
    "fl": 2747500000.0,
    "Rxd": 535.97,
    "Qxd": 4103.0,
    "fxd": 2179300000.0,
    "Ryd": 535.97,
    "Qyd": 4103.0,
    "fyd": 2179300000.0
  },
  {
    "Rl": 92.9132,
    "Ql": 7316.0,
    "fl": 2771600000.0,
    "Rxd": 118.86,
    "Qxd": 3676.0,
    "fxd": 2185100000.0,
    "Ryd": 118.86,
    "Qyd": 3676.0,
    "fyd": 2185100000.0
  },
  {
    "Rl": 296.737,
    "Ql": 7116.0,
    "fl": 2795200000.0,
    "Rxd": 228.59,
    "Qxd": 3675.0,
    "fxd": 2191900000.0,
    "Ryd": 228.59,
    "Qyd": 3675.0,
    "fyd": 2191900000.0
  },
  {
    "Rl": 0.5158,
    "Ql": 5158.0,
    "fl": 2798400000.0,
    "Rxd": 108.89,
    "Qxd": 4069.0,
    "fxd": 2198600000.0,
    "Ryd": 108.89,
    "Qyd": 4069.0,
    "fyd": 2198600000.0
  },
  {
    "Rl": 1.5501,
    "Ql": 5167.0,
    "fl": 2799200000.0,
    "Rxd": 602.83,
    "Qxd": 4374.0,
    "fxd": 2204200000.0,
    "Ryd": 602.83,
    "Qyd": 4374.0,
    "fyd": 2204200000.0
  }]
}