{
  "name": "CMS",
  "length": 18.6,
  "modes": [{
    "Rl": 2.5,
    "Ql": 1.0,
    "fl": 5000000000.0,
    "Rxd": 2080.0,
    "Qxd": 1.0,
    "fxd": 5000000000.0,
    "Ryd": 2080.0,
    "Qyd": 1.0,
    "fyd": 5000000000.0
  },
  {
    "Rl": 1542.24,
    "Ql": 10080.0,
    "fl": 751000000.0,
    "Rxd": 3080.0,
    "Qxd": 6640.0,
    "fxd": 584000000.0,
    "Ryd": 3080.0,
    "Qyd": 6640.0,
    "fyd": 584000000.0
  },
  {
    "Rl": 1233.69,
    "Ql": 10030.0,
    "fl": 786600000.0,
    "Rxd": 3120.0,
    "Qxd": 6750.0,
    "fxd": 616400000.0,
    "Ryd": 3120.0,
    "Qyd": 6750.0,
    "fyd": 616400000.0
  },
  {
    "Rl": 1027.94,
    "Ql": 9980.0,
    "fl": 816400000.0,
    "Rxd": 3110.0,
    "Qxd": 6840.0,
    "fxd": 643700000.0,
    "Ryd": 3110.0,
    "Qyd": 6840.0,
    "fyd": 643700000.0
  },
  {
    "Rl": 895.5,
    "Ql": 9950.0,
    "fl": 843300000.0,
    "Rxd": 3070.0,
    "Qxd": 6920.0,
    "fxd": 668300000.0,
    "Ryd": 3070.0,
    "Qyd": 6920.0,
    "fyd": 668300000.0
  },
  {
    "Rl": 763.84,
    "Ql": 9920.0,
    "fl": 868200000.0,
    "Rxd": 2980.0,
    "Qxd": 6980.0,
    "fxd": 691300000.0,
    "Ryd": 2980.0,
    "Qyd": 6980.0,
    "fyd": 691300000.0
  },
  {
    "Rl": 672.52,
    "Ql": 9890.0,
    "fl": 891800000.0,
    "Rxd": 2900.0,
    "Qxd": 7050.0,
    "fxd": 713000000.0,
    "Ryd": 2900.0,
    "Qyd": 7050.0,
    "fyd": 713000000.0
  },
  {
    "Rl": 581.74,
    "Ql": 9860.0,
    "fl": 914300000.0,
    "Rxd": 2780.0,
    "Qxd": 7100.0,
    "fxd": 733800000.0,
    "Ryd": 2780.0,
    "Qyd": 7100.0,
    "fyd": 733800000.0
  },
  {
    "Rl": 511.68,
    "Ql": 9840.0,
    "fl": 936000000.0,
    "Rxd": 2650.0,
    "Qxd": 7160.0,
    "fxd": 753900000.0,
    "Ryd": 2650.0,
    "Qyd": 7160.0,
    "fyd": 753900000.0
  },
  {
    "Rl": 451.72,
    "Ql": 9820.0,
    "fl": 956900000.0,
    "Rxd": 2510.0,
    "Qxd": 7210.0,
    "fxd": 773400000.0,
    "Ryd": 2510.0,
    "Qyd": 7210.0,
    "fyd": 773400000.0
  },
  {
    "Rl": 411.6,
    "Ql": 9800.0,
    "fl": 977300000.0,
    "Rxd": 2380.0,
    "Qxd": 7250.0,
    "fxd": 792300000.0,
    "Ryd": 2380.0,
    "Qyd": 7250.0,
    "fyd": 792300000.0
  },
  {
    "Rl": 361.86,
    "Ql": 9780.0,
    "fl": 997200000.0,
    "Rxd": 2230.0,
    "Qxd": 7300.0,
    "fxd": 810900000.0,
    "Ryd": 2230.0,
    "Qyd": 7300.0,
    "fyd": 810900000.0
  },
  {
    "Rl": 351.36,
    "Ql": 9760.0,
    "fl": 1016600000.0,
    "Rxd": 2180.0,
    "Qxd": 7340.0,
    "fxd": 829100000.0,
    "Ryd": 2180.0,
    "Qyd": 7340.0,
    "fyd": 829100000.0
  },
  {
    "Rl": 351.0,
    "Ql": 9750.0,
    "fl": 1035600000.0,
    "Rxd": 2120.0,
    "Qxd": 7380.0,
    "fxd": 846900000.0,
    "Ryd": 2120.0,
    "Qyd": 7380.0,
    "fyd": 846900000.0
  },
  {
    "Rl": 359.64,
    "Ql": 9720.0,
    "fl": 1054300000.0,
    "Rxd": 2120.0,
    "Qxd": 7420.0,
    "fxd": 864500000.0,
    "Ryd": 2120.0,
    "Qyd": 7420.0,
    "fyd": 864500000.0
  },
  {
    "Rl": 388.4,
    "Ql": 9710.0,
    "fl": 1072600000.0,
    "Rxd": 2230.0,
    "Qxd": 7460.0,
    "fxd": 881800000.0,
    "Ryd": 2230.0,
    "Qyd": 7460.0,
    "fyd": 881800000.0
  },
  {
    "Rl": 436.05,
    "Ql": 9690.0,
    "fl": 1090600000.0,
    "Rxd": 2970.0,
    "Qxd": 5250.0,
    "fxd": 882500000.0,
    "Ryd": 2970.0,
    "Qyd": 5250.0,
    "fyd": 882500000.0
  },
  {
    "Rl": 512.51,
    "Ql": 9670.0,
    "fl": 1108300000.0,
    "Rxd": 2380.0,
    "Qxd": 7490.0,
    "fxd": 899000000.0,
    "Ryd": 2380.0,
    "Qyd": 7490.0,
    "fyd": 899000000.0
  },
  {
    "Rl": 589.26,
    "Ql": 9660.0,
    "fl": 1125800000.0,
    "Rxd": 3080.0,
    "Qxd": 5310.0,
    "fxd": 913100000.0,
    "Ryd": 3080.0,
    "Qyd": 5310.0,
    "fyd": 913100000.0
  },
  {
    "Rl": 7009.48,
    "Ql": 8020.0,
    "fl": 1137700000.0,
    "Rxd": 2590.0,
    "Qxd": 7520.0,
    "fxd": 915900000.0,
    "Ryd": 2590.0,
    "Qyd": 7520.0,
    "fyd": 915900000.0
  },
  {
    "Rl": 655.52,
    "Ql": 9640.0,
    "fl": 1143200000.0,
    "Rxd": 2900.0,
    "Qxd": 7550.0,
    "fxd": 932600000.0,
    "Ryd": 2900.0,
    "Qyd": 7550.0,
    "fyd": 932600000.0
  },
  {
    "Rl": 731.12,
    "Ql": 9620.0,
    "fl": 1160300000.0,
    "Rxd": 3150.0,
    "Qxd": 5350.0,
    "fxd": 938500000.0,
    "Ryd": 3150.0,
    "Qyd": 5350.0,
    "fyd": 938500000.0
  },
  {
    "Rl": 5694.2,
    "Ql": 8020.0,
    "fl": 1171300000.0,
    "Rxd": 3310.0,
    "Qxd": 7580.0,
    "fxd": 949100000.0,
    "Ryd": 3310.0,
    "Qyd": 7580.0,
    "fyd": 949100000.0
  },
  {
    "Rl": 788.02,
    "Ql": 9610.0,
    "fl": 1177300000.0,
    "Rxd": 3340.0,
    "Qxd": 5390.0,
    "fxd": 961300000.0,
    "Ryd": 3340.0,
    "Qyd": 5390.0,
    "fyd": 961300000.0
  },
  {
    "Rl": 815.15,
    "Ql": 9590.0,
    "fl": 1194200000.0,
    "Rxd": 3590.0,
    "Qxd": 7600.0,
    "fxd": 965400000.0,
    "Ryd": 3590.0,
    "Qyd": 7600.0,
    "fyd": 965400000.0
  },
  {
    "Rl": 4902.12,
    "Ql": 8010.0,
    "fl": 1199200000.0,
    "Rxd": 3070.0,
    "Qxd": 7380.0,
    "fxd": 981400000.0,
    "Ryd": 3070.0,
    "Qyd": 7380.0,
    "fyd": 981400000.0
  },
  {
    "Rl": 843.04,
    "Ql": 9580.0,
    "fl": 1211000000.0,
    "Rxd": 3770.0,
    "Qxd": 5540.0,
    "fxd": 982500000.0,
    "Ryd": 3770.0,
    "Qyd": 5540.0,
    "fyd": 982500000.0
  },
  {
    "Rl": 4400.0,
    "Ql": 8000.0,
    "fl": 1224000000.0,
    "Rxd": 4370.0,
    "Qxd": 7460.0,
    "fxd": 997200000.0,
    "Ryd": 4370.0,
    "Qyd": 7460.0,
    "fyd": 997200000.0
  },
  {
    "Rl": 852.62,
    "Ql": 9580.0,
    "fl": 1227700000.0,
    "Rxd": 4270.0,
    "Qxd": 5570.0,
    "fxd": 1002600000.0,
    "Ryd": 4270.0,
    "Qyd": 5570.0,
    "fyd": 1002600000.0
  },
  {
    "Rl": 841.28,
    "Ql": 9560.0,
    "fl": 1244300000.0,
    "Rxd": 7200.0,
    "Qxd": 7420.0,
    "fxd": 1012800000.0,
    "Ryd": 7200.0,
    "Qyd": 7420.0,
    "fyd": 1012800000.0
  },
  {
    "Rl": 4026.96,
    "Ql": 7990.0,
    "fl": 1247100000.0,
    "Rxd": 5550.0,
    "Qxd": 5890.0,
    "fxd": 1022300000.0,
    "Ryd": 5550.0,
    "Qyd": 5890.0,
    "fyd": 1022300000.0
  },
  {
    "Rl": 830.85,
    "Ql": 9550.0,
    "fl": 1260800000.0,
    "Rxd": 1170.0,
    "Qxd": 7320.0,
    "fxd": 1029200000.0,
    "Ryd": 1170.0,
    "Qyd": 7320.0,
    "fyd": 1029200000.0
  },
  {
    "Rl": 3702.72,
    "Ql": 7980.0,
    "fl": 1268700000.0,
    "Rxd": 730.0,
    "Qxd": 6690.0,
    "fxd": 1041300000.0,
    "Ryd": 730.0,
    "Qyd": 6690.0,
    "fyd": 1041300000.0
  },
  {
    "Rl": 801.36,
    "Ql": 9540.0,
    "fl": 1277200000.0,
    "Rxd": 3700.0,
    "Qxd": 6860.0,
    "fxd": 1048000000.0,
    "Ryd": 3700.0,
    "Qyd": 6860.0,
    "fyd": 1048000000.0
  },
  {
    "Rl": 3435.07,
    "Ql": 7970.0,
    "fl": 1289300000.0,
    "Rxd": 4550.0,
    "Qxd": 7310.0,
    "fxd": 1059400000.0,
    "Ryd": 4550.0,
    "Qyd": 7310.0,
    "fyd": 1059400000.0
  },
  {
    "Rl": 1038.77,
    "Ql": 9530.0,
    "fl": 1293500000.0,
    "Rxd": 5580.0,
    "Qxd": 6860.0,
    "fxd": 1069000000.0,
    "Ryd": 5580.0,
    "Qyd": 6860.0,
    "fyd": 1069000000.0
  },
  {
    "Rl": 4088.04,
    "Ql": 8360.0,
    "fl": 1308700000.0,
    "Rxd": 10540.0,
    "Qxd": 7380.0,
    "fxd": 1078100000.0,
    "Ryd": 10540.0,
    "Qyd": 7380.0,
    "fyd": 1078100000.0
  },
  {
    "Rl": 414.0,
    "Ql": 9000.0,
    "fl": 1309900000.0,
    "Rxd": 10490.0,
    "Qxd": 7360.0,
    "fxd": 1089500000.0,
    "Ryd": 10490.0,
    "Qyd": 7360.0,
    "fyd": 1089500000.0
  },
  {
    "Rl": 684.5,
    "Ql": 9250.0,
    "fl": 1325000000.0,
    "Rxd": 6720.0,
    "Qxd": 7260.0,
    "fxd": 1098900000.0,
    "Ryd": 6720.0,
    "Qyd": 7260.0,
    "fyd": 1098900000.0
  },
  {
    "Rl": 2372.2,
    "Ql": 8180.0,
    "fl": 1329100000.0,
    "Rxd": 5460.0,
    "Qxd": 7580.0,
    "fxd": 1109100000.0,
    "Ryd": 5460.0,
    "Qyd": 7580.0,
    "fyd": 1109100000.0
  },
  {
    "Rl": 885.4,
    "Ql": 9320.0,
    "fl": 1341000000.0,
    "Rxd": 4890.0,
    "Qxd": 7540.0,
    "fxd": 1120300000.0,
    "Ryd": 4890.0,
    "Qyd": 7540.0,
    "fyd": 1120300000.0
  },
  {
    "Rl": 3829.01,
    "Ql": 8270.0,
    "fl": 1349200000.0,
    "Rxd": 1520.0,
    "Qxd": 7540.0,
    "fxd": 1130100000.0,
    "Ryd": 1520.0,
    "Qyd": 7540.0,
    "fyd": 1130100000.0
  },
  {
    "Rl": 2892.3,
    "Ql": 9300.0,
    "fl": 1357600000.0,
    "Rxd": 90.0,
    "Qxd": 7740.0,
    "fxd": 1140500000.0,
    "Ryd": 90.0,
    "Qyd": 7740.0,
    "fyd": 1140500000.0
  },
  {
    "Rl": 5034.4,
    "Ql": 8680.0,
    "fl": 1369400000.0,
    "Rxd": 300.0,
    "Qxd": 7750.0,
    "fxd": 1151800000.0,
    "Ryd": 300.0,
    "Qyd": 7750.0,
    "fyd": 1151800000.0
  },
  {
    "Rl": 1559.04,
    "Ql": 8960.0,
    "fl": 1375800000.0,
    "Rxd": 2160.0,
    "Qxd": 7770.0,
    "fxd": 1162000000.0,
    "Ryd": 2160.0,
    "Qyd": 7770.0,
    "fyd": 1162000000.0
  },
  {
    "Rl": 972.02,
    "Ql": 9170.0,
    "fl": 1388000000.0,
    "Rxd": 3270.0,
    "Qxd": 7950.0,
    "fxd": 1172300000.0,
    "Ryd": 3270.0,
    "Qyd": 7950.0,
    "fyd": 1172300000.0
  },
  {
    "Rl": 1461.6,
    "Ql": 8700.0,
    "fl": 1396900000.0,
    "Rxd": 680.0,
    "Qxd": 10660.0,
    "fxd": 1182700000.0,
    "Ryd": 680.0,
    "Qyd": 10660.0,
    "fyd": 1182700000.0
  },
  {
    "Rl": 818.8,
    "Ql": 9200.0,
    "fl": 1406200000.0,
    "Rxd": 6290.0,
    "Qxd": 8960.0,
    "fxd": 1184200000.0,
    "Ryd": 6290.0,
    "Qyd": 8960.0,
    "fyd": 1184200000.0
  },
  {
    "Rl": 1157.12,
    "Ql": 9040.0,
    "fl": 1418000000.0,
    "Rxd": 7090.0,
    "Qxd": 7970.0,
    "fxd": 1194400000.0,
    "Ryd": 7090.0,
    "Qyd": 7970.0,
    "fyd": 1194400000.0
  },
  {
    "Rl": 3065.04,
    "Ql": 8910.0,
    "fl": 1426500000.0,
    "Rxd": 10210.0,
    "Qxd": 8080.0,
    "fxd": 1204800000.0,
    "Ryd": 10210.0,
    "Qyd": 8080.0,
    "fyd": 1204800000.0
  },
  {
    "Rl": 3190.12,
    "Ql": 9220.0,
    "fl": 1437100000.0,
    "Rxd": 9740.0,
    "Qxd": 8140.0,
    "fxd": 1215900000.0,
    "Ryd": 9740.0,
    "Qyd": 8140.0,
    "fyd": 1215900000.0
  },
  {
    "Rl": 0.0,
    "Ql": 1.0,
    "fl": 1000000000.0,
    "Rxd": 6700.0,
    "Qxd": 12420.0,
    "fxd": 1224000000.0,
    "Ryd": 6700.0,
    "Qyd": 12420.0,
    "fyd": 1224000000.0
  },
  {
    "Rl": 0.0,
    "Ql": 1.0,
    "fl": 1000000000.0,
    "Rxd": 10000.0,
    "Qxd": 8200.0,
    "fxd": 1227100000.0,
    "Ryd": 10000.0,
    "Qyd": 8200.0,
    "fyd": 1227100000.0
  },
  {
    "Rl": 0.0,
    "Ql": 1.0,
    "fl": 1000000000.0,
    "Rxd": 11890.0,
    "Qxd": 8250.0,
    "fxd": 1237600000.0,
    "Ryd": 11890.0,
    "Qyd": 8250.0,
    "fyd": 1237600000.0
  },
  {
    "Rl": 0.0,
    "Ql": 1.0,
    "fl": 1000000000.0,
    "Rxd": 11350.0,
    "Qxd": 8290.0,
    "fxd": 1248500000.0,
    "Ryd": 11350.0,
    "Qyd": 8290.0,
    "fyd": 1248500000.0
  },
  {
    "Rl": 0.0,
    "Ql": 1.0,
    "fl": 1000000000.0,
    "Rxd": 5390.0,
    "Qxd": 12550.0,
    "fxd": 1258200000.0,
    "Ryd": 5390.0,
    "Qyd": 12550.0,
    "fyd": 1258200000.0
  },
  {
    "Rl": 0.0,
    "Ql": 1.0,
    "fl": 1000000000.0,
    "Rxd": 11370.0,
    "Qxd": 8310.0,
    "fxd": 1259800000.0,
    "Ryd": 11370.0,
    "Qyd": 8310.0,
    "fyd": 1259800000.0
  },
  {
    "Rl": 0.0,
    "Ql": 1.0,
    "fl": 1000000000.0,
    "Rxd": 10260.0,
    "Qxd": 8390.0,
    "fxd": 1270600000.0,
    "Ryd": 10260.0,
    "Qyd": 8390.0,
    "fyd": 1270600000.0
  },
  {
    "Rl": 0.0,
    "Ql": 1.0,
    "fl": 1000000000.0,
    "Rxd": 8890.0,
    "Qxd": 8460.0,
    "fxd": 1281200000.0,
    "Ryd": 8890.0,
    "Qyd": 8460.0,
    "fyd": 1281200000.0
  },
  {
    "Rl": 0.0,
    "Ql": 1.0,
    "fl": 1000000000.0,
    "Rxd": 1750.0,
    "Qxd": 12480.0,
    "fxd": 1288900000.0,
    "Ryd": 1750.0,
    "Qyd": 12480.0,
    "fyd": 1288900000.0
  },
  {
    "Rl": 0.0,
    "Ql": 1.0,
    "fl": 1000000000.0,
    "Rxd": 8850.0,
    "Qxd": 8460.0,
    "fxd": 1292600000.0,
    "Ryd": 8850.0,
    "Qyd": 8460.0,
    "fyd": 1292600000.0
  },
  {
    "Rl": 0.0,
    "Ql": 1.0,
    "fl": 1000000000.0,
    "Rxd": 6350.0,
    "Qxd": 8510.0,
    "fxd": 1303600000.0,
    "Ryd": 6350.0,
    "Qyd": 8510.0,
    "fyd": 1303600000.0
  },
  {
    "Rl": 0.0,
    "Ql": 1.0,
    "fl": 1000000000.0,
    "Rxd": 3460.0,
    "Qxd": 8860.0,
    "fxd": 1314100000.0,
    "Ryd": 3460.0,
    "Qyd": 8860.0,
    "fyd": 1314100000.0
  },
  {
    "Rl": 0.0,
    "Ql": 1.0,
    "fl": 1000000000.0,
    "Rxd": 100.0,
    "Qxd": 11960.0,
    "fxd": 1317500000.0,
    "Ryd": 100.0,
    "Qyd": 11960.0,
    "fyd": 1317500000.0
  },
  {
    "Rl": 0.0,
    "Ql": 1.0,
    "fl": 1000000000.0,
    "Rxd": 1170.0,
    "Qxd": 8610.0,
    "fxd": 1325600000.0,
    "Ryd": 1170.0,
    "Qyd": 8610.0,
    "fyd": 1325600000.0
  },
  {
    "Rl": 0.0,
    "Ql": 1.0,
    "fl": 1000000000.0,
    "Rxd": 1820.0,
    "Qxd": 8630.0,
    "fxd": 1336800000.0,
    "Ryd": 1820.0,
    "Qyd": 8630.0,
    "fyd": 1336800000.0
  },
  {
    "Rl": 0.0,
    "Ql": 1.0,
    "fl": 1000000000.0,
    "Rxd": 1040.0,
    "Qxd": 12330.0,
    "fxd": 1343500000.0,
    "Ryd": 1040.0,
    "Qyd": 12330.0,
    "fyd": 1343500000.0
  },
  {
    "Rl": 0.0,
    "Ql": 1.0,
    "fl": 1000000000.0,
    "Rxd": 2540.0,
    "Qxd": 8800.0,
    "fxd": 1347900000.0,
    "Ryd": 2540.0,
    "Qyd": 8800.0,
    "fyd": 1347900000.0
  },
  {
    "Rl": 0.0,
    "Ql": 1.0,
    "fl": 1000000000.0,
    "Rxd": 2860.0,
    "Qxd": 8740.0,
    "fxd": 1358700000.0,
    "Ryd": 2860.0,
    "Qyd": 8740.0,
    "fyd": 1358700000.0
  },
  {
    "Rl": 0.0,
    "Ql": 1.0,
    "fl": 1000000000.0,
    "Rxd": 810.0,
    "Qxd": 11910.0,
    "fxd": 1369100000.0,
    "Ryd": 810.0,
    "Qyd": 11910.0,
    "fyd": 1369100000.0
  },
  {
    "Rl": 0.0,
    "Ql": 1.0,
    "fl": 1000000000.0,
    "Rxd": 2060.0,
    "Qxd": 9070.0,
    "fxd": 1370000000.0,
    "Ryd": 2060.0,
    "Qyd": 9070.0,
    "fyd": 1370000000.0
  },
  {
    "Rl": 0.0,
    "Ql": 1.0,
    "fl": 1000000000.0,
    "Rxd": 2510.0,
    "Qxd": 8800.0,
    "fxd": 1381100000.0,
    "Ryd": 2510.0,
    "Qyd": 8800.0,
    "fyd": 1381100000.0
  },
  {
    "Rl": 0.0,
    "Ql": 1.0,
    "fl": 1000000000.0,
    "Rxd": 3070.0,
    "Qxd": 9370.0,
    "fxd": 1391700000.0,
    "Ryd": 3070.0,
    "Qyd": 9370.0,
    "fyd": 1391700000.0
  },
  {
    "Rl": 0.0,
    "Ql": 1.0,
    "fl": 1000000000.0,
    "Rxd": 2360.0,
    "Qxd": 11600.0,
    "fxd": 1393800000.0,
    "Ryd": 2360.0,
    "Qyd": 11600.0,
    "fyd": 1393800000.0
  },
  {
    "Rl": 0.0,
    "Ql": 1.0,
    "fl": 1000000000.0,
    "Rxd": 7090.0,
    "Qxd": 8910.0,
    "fxd": 1403200000.0,
    "Ryd": 7090.0,
    "Qyd": 8910.0,
    "fyd": 1403200000.0
  },
  {
    "Rl": 0.0,
    "Ql": 1.0,
    "fl": 1000000000.0,
    "Rxd": 7710.0,
    "Qxd": 8910.0,
    "fxd": 1414300000.0,
    "Ryd": 7710.0,
    "Qyd": 8910.0,
    "fyd": 1414300000.0
  }]
}
