{
  "BS_50A": {
    "small_axis": 0.018375,
    "large_axis": 0.023175,
    "orientation": "v",
    "layers": [
      {
        "material": "Cu20K",
        "thickness": 0.00005
      },
      {
        "material": "stainless_steel_p506_20k",
        "thickness": "inf"
      }
    ],
    "frequency_dependent_factor_file": "weld_factor_LHC_beam_screens.dat"
  },
  "BS_50L": {
    "small_axis": 0.018775,
    "large_axis": 0.023575,
    "orientation": "v",
    "layers": [
      {
        "material": "Cu20K",
        "thickness": 0.00005
      },
      {
        "material": "stainless_steel_p506_20k",
        "thickness": "inf"
      }
    ],
    "frequency_dependent_factor_file": "weld_factor_LHC_beam_screens.dat"
  },
  "BS_53H": {
    "small_axis": 0.020175,
    "large_axis": 0.024975,
    "orientation": "h",
    "layers": [
      {
        "material": "Cu20K",
        "thickness": 0.00005
      },
      {
        "material": "stainless_steel_p506_20k",
        "thickness": "inf"
      }
    ],
    "frequency_dependent_factor_file": "weld_factor_LHC_beam_screens.dat"
  },
  "BS_53V": {
    "small_axis": 0.020175,
    "large_axis": 0.024975,
    "orientation": "v",
    "layers": [
      {
        "material": "Cu20K",
        "thickness": 0.00005
      },
      {
        "material": "stainless_steel_p506_20k",
        "thickness": "inf"
      }
    ],
    "frequency_dependent_factor_file": "weld_factor_LHC_beam_screens.dat"
  },
  "BS_63H": {
    "small_axis": 0.025225,
    "large_axis": 0.030025,
    "orientation": "h",
    "layers": [
      {
        "material": "Cu20K",
        "thickness": 0.00005
      },
      {
        "material": "stainless_steel_p506_20k",
        "thickness": "inf"
      }
    ],
    "frequency_dependent_factor_file": "weld_factor_LHC_beam_screens.dat"
  },
  "BS_63V": {
    "small_axis": 0.025225,
    "large_axis": 0.030025,
    "orientation": "v",
    "layers": [
      {
        "material": "Cu20K",
        "thickness": 0.00005
      },
      {
        "material": "stainless_steel_p506_20k",
        "thickness": "inf"
      }
    ],
    "frequency_dependent_factor_file": "weld_factor_LHC_beam_screens.dat"
  },
  "BS_69": {
    "small_axis": 0.028075,
    "large_axis": 0.032875,
    "orientation": "v",
    "layers": [
      {
        "material": "Cu20K",
        "thickness": 0.00005
      },
      {
        "material": "stainless_steel_p506_20k",
        "thickness": "inf"
      }
    ],
    "frequency_dependent_factor_file": "weld_factor_LHC_beam_screens.dat"
  },
  "BS_74": {
    "small_axis": 0.030475,
    "large_axis": 0.035325,
    "orientation": "v",
    "layers": [
      {
        "material": "Cu20K",
        "thickness": 0.00005
      },
      {
        "material": "stainless_steel_p506_20k",
        "thickness": "inf"
      }
    ],
    "frequency_dependent_factor_file": "weld_factor_LHC_beam_screens.dat"
  }
}
