{
  "taperBS53_BS63": {
    "Rt": 98.16,
    "Rl": 26.2,
    "length": 0.03
  },
  "taperBS63_BS74": {
    "Rt": 28.46,
    "Rl": 11.5,
    "length": 0.077
  },
  "taperBS74_warm": {
    "Rt": 126.73,
    "Rl": 81.0,
    "length": 0.035
  }
}
